Introduction to Exploratory Data Analysis (EDA) with R - Bervelin Lumesa
…
Exploratory Data Analysis can also suggest to recode some variables and or make transformations…

Here we create a new variable minutes.tv which gives the time of watching tv in minutes, using mutate().

hdv2003 %>%
  mutate(minutes.tv = heures.tv * 60) %>% 
  select(heures.tv, minutes.tv)
# A tibble: 2,000 x 2
   heures.tv minutes.tv
       <dbl>      <dbl>
 1       0            0
 2       1           60
 3       0            0
 4       2          120
 5       3          180
 6       2          120
 7       2.9        174
 8       1           60
 9       2          120
10       2          120
# ... with 1,990 more rows
…
